Prior choice and specification guide • EpiNow2
…
Step 5: Check model convergence

After modifying priors, always check that the model has converged
properly. Poor prior choices can lead to convergence problems.

# Check convergence diagnostics
# Extract the Stan fit object
fit <- estimates_r0$fit

# Check Rhat (should be < 1.01)
summarise_draws(fit, "rhat")
#> # A tibble: 511 × 2
#>    variable   rhat
#>    <chr>     <dbl>
#>  1 params[1] 1.05 
#>  2 params[2] 1.01 
#>  3 params[3] 1.05 
#>  4 params[4] 1.01 
#>  5 eta[1]    1.06 
#>  6 eta[2]    1.03 
#>  7 eta[3]    0.999
#>  8 eta[4]    0.982
#>  9 eta[5]    1.02 
#> 10 eta[6]    1.03 
#> # ℹ 501 more rows

# Check effective sample size (should be > 400 for reliable inference)
summarise_draws(fit, "ess_bulk", "ess_tail")
#> Warning: The ESS has been capped to avoid unstable estimates.
#> Warning: The ESS has been capped to avoid unstable estimates.
#> # A tibble: 511 × 3
#>    variable  ess_bulk ess_tail
#>    <chr>        <dbl>    <dbl>
#>  1 params[1]    102.      85.9
#>  2 params[2]    112.      75.9
#>  3 params[3]     35.4     27.1
#>  4 params[4]     60.6    113. 
#>  5 eta[1]       170.      54.6
#>  6 eta[2]       115.      77.8
#>  7 eta[3]       105.      71.9
#>  8 eta[4]       117.      81.2
#>  9 eta[5]        78.4     55.3
#> 10 eta[6]       130.     119. 
#> # ℹ 501 more rows
…
